Build a Complete nflfastR Data Set — build_nflfastR_pbp • nflfastR
…
#> ✔ 12:26:51 | added wp variables
#> ✔ 12:26:51 | added air_yac_wp variables
#> ✔ 12:26:51 | added cp and cpoe
#> ✔ 12:26:51 | added fixed drive variables
#> ✔ 12:26:51 | added series variables
#> • 12:26:51 | Cleaning up play-by-play...
#> ✔ 12:26:51 | Cleaning completed
#> ✔ 12:26:51 | added qb_epa
#> • 12:26:51 | Computing xyac...
#> ✔ 12:26:54 | added xyac variables
#> • 12:26:54 | Computing xpass...
#> ✔ 12:26:55 | added xpass and pass_oe
#> ✔ 12:26:55 | Decoding of player ids completed
#> ── DONE ────────────────────────────────────────────────────────────────────────
#> # A tibble: 353 × 372
#>    play_id game_id old_g…¹ home_…² away_…³ seaso…⁴  week posteam poste…⁵ defteam
#>      <dbl> <chr>   <chr>   <chr>   <chr>   <chr>   <int> <chr>   <chr>   <chr>  
#>  1       1 2018_2… 201902… LA      NE      POST       21 NA      NA      NA     
#>  2      38 2018_2… 201902… LA      NE      POST       21 NE      away    LA     
#>  3      67 2018_2… 201902… LA      NE      POST       21 NE      away    LA     
#>  4      89 2018_2… 201902… LA      NE      POST       21 NE      away    LA     
#>  5     111 2018_2… 201902… LA      NE      POST       21 NE      away    LA     
#>  6     133 2018_2… 201902… LA      NE      POST       21 NE      away    LA     
#>  7     155 2018_2… 201902… LA      NE      POST       21 NE      away    LA     
#>  8     182 2018_2… 201902… LA      NE      POST       21 LA      home    NE     
#>  9     204 2018_2… 201902… LA      NE      POST       21 LA      home    NE     
#> 10     226 2018_2… 201902… LA      NE      POST       21 LA      home    NE     
#> # … with 343 more rows, 362 more variables: side_of_field <chr>,
#> #   yardline_100 <dbl>, game_date <chr>, quarter_seconds_remaining <dbl>,
#> #   half_seconds_remaining <dbl>, game_seconds_remaining <dbl>,
#> #   game_half <chr>, quarter_end <dbl>, drive <dbl>, sp <dbl>, qtr <dbl>,
#> #   down <dbl>, goal_to_go <dbl>, time <chr>, yrdln <chr>, ydstogo <dbl>,
#> #   ydsnet <dbl>, desc <chr>, play_type <chr>, yards_gained <dbl>,
#> #   shotgun <dbl>, no_huddle <dbl>, qb_dropback <dbl>, qb_kneel <dbl>, …
…
#> ✔ 12:27:03 | added cp and cpoe
#> ✔ 12:27:03 | added fixed drive variables
#> ✔ 12:27:03 | added series variables
#> • 12:27:03 | Cleaning up play-by-play...
#> ✔ 12:27:04 | Cleaning completed
#> ✔ 12:27:04 | added qb_epa
#> • 12:27:04 | Computing xyac...
#> ✔ 12:27:05 | added xyac variables
#> • 12:27:05 | Computing xpass...
#> ✔ 12:27:05 | added xpass and pass_oe
#> ✔ 12:27:05 | Decoding of player ids completed
#> ── DONE ────────────────────────────────────────────────────────────────────────
#> ── nflverse play by play ───────────────────────────────────────────────────────
#> ℹ Data updated: 2022-09-12 12:27:05 UTC
#> # A tibble: 545 × 372
#>    play_id game_id old_g…¹ home_…² away_…³ seaso…⁴  week posteam poste…⁵ defteam
#>      <dbl> <chr>   <chr>   <chr>   <chr>   <chr>   <int> <chr>   <chr>   <chr>  
#>  1       1 2020_2… 202101… KC      BUF     POST       20 NA      NA      NA     
#>  2      42 2020_2… 202101… KC      BUF     POST       20 BUF     away    KC     
#>  3      57 2020_2… 202101… KC      BUF     POST       20 BUF     away    KC     
#>  4      78 2020_2… 202101… KC      BUF     POST       20 BUF     away    KC     
#>  5     102 2020_2… 202101… KC      BUF     POST       20 BUF     away    KC     
#>  6     123 2020_2… 202101… KC      BUF     POST       20 BUF     away    KC     
#>  7     145 2020_2… 202101… KC      BUF     POST       20 BUF     away    KC     
#>  8     174 2020_2… 202101… KC      BUF     POST       20 BUF     away    KC     
#>  9     207 2020_2… 202101… KC      BUF     POST       20 BUF     away    KC     
#> 10     236 2020_2… 202101… KC      BUF     POST       20 BUF     away    KC     
#> # … with 535 more rows, 362 more variables: side_of_field <chr>,
#> #   yardline_100 <dbl>, game_date <chr>, quarter_seconds_remaining <dbl>,
#> #   half_seconds_remaining <dbl>, game_seconds_remaining <dbl>,
#> #   game_half <chr>, quarter_end <dbl>, drive <dbl>, sp <dbl>, qtr <dbl>,
#> #   down <dbl>, goal_to_go <dbl>, time <chr>, yrdln <chr>, ydstogo <dbl>,
#> #   ydsnet <dbl>, desc <chr>, play_type <chr>, yards_gained <dbl>,
#> #   shotgun <dbl>, no_huddle <dbl>, qb_dropback <dbl>, qb_kneel <dbl>, …
…
