…
#> ✔ 19:51:37 | added fixed drive variables
#> ✔ 19:51:37 | added series variables
#> • 19:51:37 | Cleaning up play-by-play...
#> ✔ 19:51:37 | Cleaning completed
#> ✔ 19:51:37 | added qb_epa
#> • 19:51:37 | Computing xyac...
#> ✔ 19:51:39 | added xyac variables
#> • 19:51:39 | Computing xpass...
#> ✔ 19:51:39 | added xpass and pass_oe
#> • 19:51:39 | Decode player ids...
#> ✔ 19:51:40 | Decoding of player ids completed
#> ── DONE ────────────────────────────────────────────────────────────────────────
#> ── nflverse play by play ───────────────────────────────────────────────────────
#> ℹ Data updated: 2026-03-18 19:51:40 UTC
#> # A tibble: 349 × 372
#>    play_id game_id     old_game_id home_team away_team season_type  week posteam
#>      <dbl> <chr>       <chr>       <chr>     <chr>     <chr>       <int> <chr>  
#>  1       1 2018_21_NE… 2019020300  LA        NE        POST           21 NA     
#>  2      38 2018_21_NE… 2019020300  LA        NE        POST           21 NE     
#>  3      67 2018_21_NE… 2019020300  LA        NE        POST           21 NE     
#>  4      89 2018_21_NE… 2019020300  LA        NE        POST           21 NE     
#>  5     111 2018_21_NE… 2019020300  LA        NE        POST           21 NE     
#>  6     133 2018_21_NE… 2019020300  LA        NE        POST           21 NE     
#>  7     155 2018_21_NE… 2019020300  LA        NE        POST           21 NE     
#>  8     182 2018_21_NE… 2019020300  LA        NE        POST           21 LA     
#>  9     204 2018_21_NE… 2019020300  LA        NE        POST           21 LA     
#> 10     226 2018_21_NE… 2019020300  LA        NE        POST           21 LA     
#> # ℹ 339 more rows
#> # ℹ 364 more variables: posteam_type <chr>, defteam <chr>, side_of_field <chr>,
#> #   yardline_100 <dbl>, game_date <chr>, quarter_seconds_remaining <dbl>,
#> #   half_seconds_remaining <dbl>, game_seconds_remaining <dbl>,
#> #   game_half <chr>, quarter_end <dbl>, drive <dbl>, sp <dbl>, qtr <dbl>,
#> #   down <dbl>, goal_to_go <dbl>, time <chr>, yrdln <chr>, ydstogo <dbl>,
#> #   ydsnet <dbl>, desc <chr>, play_type <chr>, yards_gained <dbl>, …
…
#> ✔ 19:51:44 | added fixed drive variables
#> ✔ 19:51:44 | added series variables
#> • 19:51:44 | Cleaning up play-by-play...
#> ✔ 19:51:44 | Cleaning completed
#> ✔ 19:51:44 | added qb_epa
#> • 19:51:44 | Computing xyac...
#> ✔ 19:51:45 | added xyac variables
#> • 19:51:45 | Computing xpass...
#> ✔ 19:51:45 | added xpass and pass_oe
#> • 19:51:45 | Decode player ids...
#> ✔ 19:51:46 | Decoding of player ids completed
#> ── DONE ────────────────────────────────────────────────────────────────────────
#> ── nflverse play by play ───────────────────────────────────────────────────────
#> ℹ Data updated: 2026-03-18 19:51:46 UTC
#> # A tibble: 533 × 372
#>    play_id game_id     old_game_id home_team away_team season_type  week posteam
#>      <dbl> <chr>       <chr>       <chr>     <chr>     <chr>       <int> <chr>  
#>  1       1 2025_21_LA… 2026012501  SEA       LA        POST           21 NA     
#>  2      39 2025_21_LA… 2026012501  SEA       LA        POST           21 LA     
#>  3      62 2025_21_LA… 2026012501  SEA       LA        POST           21 LA     
#>  4      84 2025_21_LA… 2026012501  SEA       LA        POST           21 LA     
#>  5     109 2025_21_LA… 2026012501  SEA       LA        POST           21 LA     
#>  6     132 2025_21_LA… 2026012501  SEA       LA        POST           21 LA     
#>  7     152 2025_21_LA… 2026012501  SEA       LA        POST           21 SEA    
#>  8     174 2025_21_LA… 2026012501  SEA       LA        POST           21 SEA    
#>  9     197 2025_21_LA… 2026012501  SEA       LA        POST           21 SEA    
#> 10     222 2025_21_LA… 2026012501  SEA       LA        POST           21 SEA    
#> # ℹ 523 more rows
#> # ℹ 364 more variables: posteam_type <chr>, defteam <chr>, side_of_field <chr>,
#> #   yardline_100 <dbl>, game_date <chr>, quarter_seconds_remaining <dbl>,
#> #   half_seconds_remaining <dbl>, game_seconds_remaining <dbl>,
#> #   game_half <chr>, quarter_end <dbl>, drive <dbl>, sp <dbl>, qtr <dbl>,
#> #   down <dbl>, goal_to_go <dbl>, time <chr>, yrdln <chr>, ydstogo <dbl>,
#> #   ydsnet <dbl>, desc <chr>, play_type <chr>, yards_gained <dbl>, …
…
