Get NFL Season Schedules — fast_scraper_schedules • nflfastR
…
    This functions now incorporates the games file provided and maintained
by Lee Sharpe.

    See also

    For information on parallel processing and progress updates please
see nflfastR.

    Examples

# \donttest{
# Get schedules for the whole 2015 - 2018 seasons
fast_scraper_schedules(2015:2018)
#> ℹ It is recommended to use parallel processing when trying to load multiple seasons. Please consider running `future::plan("multisession")`! Will go on sequentially...
#> # A tibble: 1,068 × 17
#>    game_id   season game_type  week gameday weekday gametime away_team home_team
#>    <chr>      <int> <chr>     <int> <chr>   <chr>   <chr>    <chr>     <chr>    
#>  1 2015_01_…   2015 REG           1 2015-0… Thursd… 20:30    PIT       NE       
#>  2 2015_01_…   2015 REG           1 2015-0… Sunday  13:00    IND       BUF      
#>  3 2015_01_…   2015 REG           1 2015-0… Sunday  13:00    GB        CHI      
#>  4 2015_01_…   2015 REG           1 2015-0… Sunday  13:00    KC        HOU      
#>  5 2015_01_…   2015 REG           1 2015-0… Sunday  13:00    CAR       JAX      
#>  6 2015_01_…   2015 REG           1 2015-0… Sunday  13:00    CLE       NYJ      
#>  7 2015_01_…   2015 REG           1 2015-0… Sunday  13:00    SEA       STL      
#>  8 2015_01_…   2015 REG           1 2015-0… Sunday  13:00    MIA       WAS      
#>  9 2015_01_…   2015 REG           1 2015-0… Sunday  16:05    NO        ARI      
#> 10 2015_01_…   2015 REG           1 2015-0… Sunday  16:05    DET       SD       
#> # … with 1,058 more rows, and 8 more variables: away_score <int>,
#> #   home_score <int>, home_result <int>, stadium <chr>, location <chr>,
#> #   roof <chr>, surface <chr>, old_game_id <chr>
…
