…
#> ℹ It is recommended to use parallel processing when trying to load multiple games.Please consider running `future::plan("multisession")`! Will go on sequentially...
#> ✔ 07:36:10 | Download finished. Adding variables...
#> ✔ 07:36:10 | added game variables
#> ✔ 07:36:10 | added nflscrapR variables
#> ✔ 07:36:10 | added ep variables
#> ✔ 07:36:11 | added air_yac_ep variables
#> ✔ 07:36:11 | added wp variables
#> ✔ 07:36:11 | added air_yac_wp variables
#> ✔ 07:36:11 | added cp and cpoe
#> ✔ 07:36:11 | added fixed drive variables
#> ✔ 07:36:11 | added series variables
#> ✔ 07:36:11 | Procedure completed.
#> ── nflverse play by play ───────────────────────────────────────────────────────
#> ℹ Data updated: 2026-02-18 07:36:11 UTC
#> # A tibble: 337 × 339
#>    play_id game_id     old_game_id home_team away_team season_type  week posteam
#>      <dbl> <chr>       <chr>       <chr>     <chr>     <chr>       <int> <chr>  
#>  1       1 2013_21_SE… 2014020200  DEN       SEA       POST           21 NA     
#>  2      37 2013_21_SE… 2014020200  DEN       SEA       POST           21 DEN    
#>  3      61 2013_21_SE… 2014020200  DEN       SEA       POST           21 DEN    
#>  4      83 2013_21_SE… 2014020200  DEN       SEA       POST           21 DEN    
#>  5     119 2013_21_SE… 2014020200  DEN       SEA       POST           21 SEA    
#>  6     141 2013_21_SE… 2014020200  DEN       SEA       POST           21 SEA    
#>  7     162 2013_21_SE… 2014020200  DEN       SEA       POST           21 SEA    
#>  8     183 2013_21_SE… 2014020200  DEN       SEA       POST           21 SEA    
#>  9     210 2013_21_SE… 2014020200  DEN       SEA       POST           21 SEA    
#> 10     232 2013_21_SE… 2014020200  DEN       SEA       POST           21 SEA    
#> # ℹ 327 more rows
#> # ℹ 331 more variables: posteam_type <chr>, defteam <chr>, side_of_field <chr>,
#> #   yardline_100 <dbl>, game_date <chr>, quarter_seconds_remaining <dbl>,
#> #   half_seconds_remaining <dbl>, game_seconds_remaining <dbl>,
#> #   game_half <chr>, quarter_end <dbl>, drive <dbl>, sp <dbl>, qtr <dbl>,
#> #   down <dbl>, goal_to_go <dbl>, time <chr>, yrdln <chr>, ydstogo <dbl>,
#> #   ydsnet <dbl>, desc <chr>, play_type <chr>, yards_gained <dbl>, …
…
#> ℹ It is recommended to use parallel processing when trying to load multiple games.Please consider running `future::plan("multisession")`! Will go on sequentially...
#> ✔ 07:36:14 | Download finished. Adding variables...
#> ✔ 07:36:14 | added game variables
#> ✔ 07:36:14 | added nflscrapR variables
#> ✔ 07:36:15 | added ep variables
#> ✔ 07:36:15 | added air_yac_ep variables
#> ✔ 07:36:15 | added wp variables
#> ✔ 07:36:15 | added air_yac_wp variables
#> ✔ 07:36:15 | added cp and cpoe
#> ✔ 07:36:15 | added fixed drive variables
#> ✔ 07:36:15 | added series variables
#> ✔ 07:36:15 | Procedure completed.
#> ── nflverse play by play ───────────────────────────────────────────────────────
#> ℹ Data updated: 2026-02-18 07:36:15 UTC
#> # A tibble: 539 × 339
#>    play_id game_id     old_game_id home_team away_team season_type  week posteam
#>      <dbl> <chr>       <chr>       <chr>     <chr>     <chr>       <int> <chr>  
#>  1       1 2020_20_BU… 2021012401  KC        BUF       POST           20 NA     
#>  2      42 2020_20_BU… 2021012401  KC        BUF       POST           20 BUF    
#>  3      57 2020_20_BU… 2021012401  KC        BUF       POST           20 BUF    
#>  4      78 2020_20_BU… 2021012401  KC        BUF       POST           20 BUF    
#>  5     102 2020_20_BU… 2021012401  KC        BUF       POST           20 BUF    
#>  6     123 2020_20_BU… 2021012401  KC        BUF       POST           20 BUF    
#>  7     145 2020_20_BU… 2021012401  KC        BUF       POST           20 BUF    
#>  8     174 2020_20_BU… 2021012401  KC        BUF       POST           20 BUF    
#>  9     207 2020_20_BU… 2021012401  KC        BUF       POST           20 BUF    
#> 10     236 2020_20_BU… 2021012401  KC        BUF       POST           20 BUF    
#> # ℹ 529 more rows
#> # ℹ 331 more variables: posteam_type <chr>, defteam <chr>, side_of_field <chr>,
#> #   yardline_100 <dbl>, game_date <chr>, quarter_seconds_remaining <dbl>,
#> #   half_seconds_remaining <dbl>, game_seconds_remaining <dbl>,
#> #   game_half <chr>, quarter_end <dbl>, drive <dbl>, sp <dbl>, qtr <dbl>,
#> #   down <dbl>, goal_to_go <dbl>, time <chr>, yrdln <chr>, ydstogo <dbl>,
#> #   ydsnet <dbl>, desc <chr>, play_type <chr>, yards_gained <dbl>, …
…
