A beginner's guide to nflfastR • nflfastR
…
Note the new syntax for case_when: we have condition (for the first one, air yards less than 0), followed by ~, followed by assignment (for the first one, “Negative”). In the above, we created 4 bins based on air yards and got average completion probability (cp) based on the nflfastR model. Unsurprisingly, cp is lower the longer downfield a throw goes.

A basic figure

Now that we’ve gained some skills at manipulating data, let’s put it to use by making things. Which teams were the most pass-heavy in the first half on early downs with win probability between 20 and 80, excluding the final 2 minutes of the half when everyone is pass-happy?

schotty <- pbp_rp %>%
    filter(wp > .20 & wp < .80 & down <= 2 & qtr <= 2 & half_seconds_remaining > 120) %>%
    group_by(posteam) %>%
    summarize(mean_pass = mean(pass), plays = n()) %>%
    arrange(-mean_pass)
schotty
#> # A tibble: 32 × 3
#>    posteam mean_pass plays
#>    <chr>       <dbl> <int>
#>  1 KC          0.691   388
#>  2 MIA         0.594   288
#>  3 NO          0.585   325
#>  4 LA          0.584   329
#>  5 CHI         0.563   309
#>  6 CLE         0.555   272
#>  7 CAR         0.554   271
#>  8 TB          0.551   321
#>  9 GB          0.550   291
#> 10 ARI         0.548   325
#> # … with 22 more rows
…
The top pass defenses (2002 TB, 2017 JAX, 2019 NE) and offenses (2007 Pats, 2004 Colts, 2011 Packers) definitely check out!

Fix team names and join

Now we’re ready to bind it all together. Actually, let’s make sure all the team names are ready too.

team_wins %>%
  group_by(team) %>%
  summarize(n=n()) %>%
  arrange(n)
#> # A tibble: 35 × 2
#>    team      n
#>    <chr> <int>
#>  1 LV        3
#>  2 LAC       6
#>  3 LA        7
#>  4 STL      17
#>  5 SD       18
#>  6 HOU      21
#>  7 OAK      21
#>  8 ARI      24
#>  9 ATL      24
#> 10 BAL      24
#> # … with 25 more rows
…
The TRUE statement at the bottom says that if none of the above cases are found, keep team the same. Let’s make sure this worked:

team_wins %>%
  group_by(team) %>%
  summarize(n=n()) %>%
  arrange(n)
#> # A tibble: 32 × 2
#>    team      n
#>    <chr> <int>
#>  1 HOU      21
#>  2 ARI      24
#>  3 ATL      24
#>  4 BAL      24
#>  5 BUF      24
#>  6 CAR      24
#>  7 CHI      24
#>  8 CIN      24
#>  9 CLE      24
#> 10 DAL      24
#> # … with 22 more rows
…
