…
### A basic figure

Now that we’ve gained some skills at manipulating data, let’s put it to
use by making things. Which teams were the most pass-heavy in the first
half on early downs with win probability between 20 and 80, excluding
the final 2 minutes of the half when everyone is pass-happy?

``` r
schotty <- pbp_rp |>
    filter(wp > .20 & wp < .80 & down <= 2 & qtr <= 2 & half_seconds_remaining > 120) |>
    group_by(posteam) |>
    summarize(mean_pass = mean(pass), plays = n()) |>
    arrange(-mean_pass)
schotty
#> # A tibble: 32 × 3
#>    posteam mean_pass plays
#>    <chr>       <dbl> <int>
#>  1 KC          0.688   388
#>  2 MIA         0.594   288
#>  3 NO          0.585   325
#>  4 LA          0.584   329
#>  5 CHI         0.558   310
#>  6 CLE         0.555   272
#>  7 CAR         0.554   271
#>  8 TB          0.551   321
#>  9 GB          0.550   291
#> 10 ARI         0.548   325
#> # ℹ 22 more rows
```
…
Let’s make some more figures. The
[`load_teams()`](https://nflreadr.nflverse.com/reference/load_teams.html)
function is provided in the `nflreadr` package, so since we have already
loaded the package, it’s ready to use.

``` r
load_teams()
#> ── nflverse teams data ─────────────────────────────────────────────────────────
#> ℹ Data updated: 2025-10-01 08:03:15 UTC
#> # A tibble: 32 × 16
#>    team_abbr team_name      team_id team_nick team_conf team_division team_color
#>    <chr>     <chr>            <int> <chr>     <chr>     <chr>         <chr>     
#>  1 ARI       Arizona Cardi…    3800 Cardinals NFC       NFC West      #97233F   
#>  2 ATL       Atlanta Falco…     200 Falcons   NFC       NFC South     #A71930   
#>  3 BAL       Baltimore Rav…     325 Ravens    AFC       AFC North     #241773   
#>  4 BUF       Buffalo Bills      610 Bills     AFC       AFC East      #00338D   
#>  5 CAR       Carolina Pant…     750 Panthers  NFC       NFC South     #0085CA   
#>  6 CHI       Chicago Bears      810 Bears     NFC       NFC North     #0B162A   
#>  7 CIN       Cincinnati Be…     920 Bengals   AFC       AFC North     #FB4F14   
#>  8 CLE       Cleveland Bro…    1050 Browns    AFC       AFC North     #FF3C00   
#>  9 DAL       Dallas Cowboys    1200 Cowboys   NFC       NFC East      #002244   
#> 10 DEN       Denver Broncos    1400 Broncos   AFC       AFC West      #002244   
#> # ℹ 22 more rows
#> # ℹ 9 more variables: team_color2 <chr>, team_color3 <chr>, team_color4 <chr>,
#> #   team_logo_wikipedia <chr>, team_logo_espn <chr>, team_wordmark <chr>,
#> #   team_conference_logo <chr>, team_league_logo <chr>, team_logo_squared <chr>
```
…
The top pass defenses (2002 TB, 2017 JAX, 2019 NE) and offenses (2007
Pats, 2004 Colts, 2011 Packers) definitely check out!

### Fix team names and join

Now we’re ready to bind it all together. Actually, let’s make sure all
the team names are ready too.

``` r
team_wins |>
  group_by(team) |>
  summarize(n=n()) |>
  arrange(n)
#> # A tibble: 35 × 2
#>    team      n
#>    <chr> <int>
#>  1 LV        6
#>  2 LAC       9
#>  3 LA       10
#>  4 STL      17
#>  5 SD       18
#>  6 OAK      21
#>  7 HOU      24
#>  8 ARI      27
#>  9 ATL      27
#> 10 BAL      27
#> # ℹ 25 more rows
```
…
The `TRUE` statement at the bottom says that if none of the above cases
are found, keep team the same. Let’s make sure this worked:

``` r
team_wins |>
  group_by(team) |>
  summarize(n=n()) |>
  arrange(n)
#> # A tibble: 32 × 2
#>    team      n
#>    <chr> <int>
#>  1 HOU      24
#>  2 ARI      27
#>  3 ATL      27
#>  4 BAL      27
#>  5 BUF      27
#>  6 CAR      27
#>  7 CHI      27
#>  8 CIN      27
#>  9 CLE      27
#> 10 DAL      27
#> # ℹ 22 more rows
```
…
