Examples • nflfastR
…
So far, everything has stayed in the database. If you want to bring a query into memory, just use collect() at the end:

russ <- pbp_db %>%
  filter(name == "R.Wilson" & posteam == "SEA") %>%
  select(desc, epa) %>%
  collect()

russ
#> # A tibble: 5,673 x 2
#>    desc                                                                      epa
#>    <chr>                                                                   <dbl>
#>  1 (14:12) 3-R.Wilson pass short right to 18-S.Rice to SEA 34 for 9 ya~  1.06   
#>  2 (12:53) 3-R.Wilson pass incomplete deep left to 18-S.Rice. PENALTY ~  2.68   
#>  3 (11:25) (Shotgun) 3-R.Wilson pass incomplete short right to 18-S.Ri~ -1.32   
#>  4 (10:24) (Shotgun) 3-R.Wilson pass short left to 18-S.Rice to ARI 31~  0.919  
#>  5 (9:47) 3-R.Wilson scrambles right end ran ob at ARI 27 for 4 yards ~ -0.00504
#>  6 (8:35) 3-R.Wilson pass incomplete short right to 18-S.Rice.          -0.425  
#>  7 (7:54) (Shotgun) 3-R.Wilson left end pushed ob at ARI 9 for 4 yards~ -1.19   
#>  8 (:27) 3-R.Wilson sacked at SEA 17 for -5 yards (51-P.Lenon). Penalt~ -0.971  
#>  9 (14:28) (Shotgun) 3-R.Wilson pass short right to 17-B.Edwards to SE~  1.91   
#> 10 (13:59) 3-R.Wilson pass incomplete deep left to 87-B.Obomanu.        -0.501  
#> # ... with 5,663 more rows
…
