Get started with nflfastR • nflfastR
…
So far, everything has stayed in the database. If you want to bring a
query into memory, just use collect() at the end:

russ <- pbp_db |>
  dplyr::filter(name == "R.Wilson" & posteam == "SEA") |>
  dplyr::select(desc, epa) |>
  dplyr::collect()
russ
#> # A tibble: 6,946 × 2
#>    desc                                                                      epa
#>    <chr>                                                                   <dbl>
#>  1 (14:12) 3-R.Wilson pass short right to 18-S.Rice to SEA 34 for 9 yar…  1.13  
#>  2 (12:53) 3-R.Wilson pass incomplete deep left to 18-S.Rice. PENALTY o…  2.68  
#>  3 (11:25) (Shotgun) 3-R.Wilson pass incomplete short right to 18-S.Ric… -1.31  
#>  4 (10:24) (Shotgun) 3-R.Wilson pass short left to 18-S.Rice to ARI 31 …  0.928 
#>  5 (9:47) 3-R.Wilson scrambles right end ran ob at ARI 27 for 4 yards (… -0.0194
#>  6 (8:35) 3-R.Wilson pass incomplete short right to 18-S.Rice.           -0.426 
#>  7 (7:54) (Shotgun) 3-R.Wilson left end pushed ob at ARI 9 for 4 yards … -1.17  
#>  8 (:27) 3-R.Wilson sacked at SEA 17 for -5 yards (51-P.Lenon). Penalty… -1.13  
#>  9 (14:28) (Shotgun) 3-R.Wilson pass short right to 17-B.Edwards to SEA…  1.94  
#> 10 (13:59) 3-R.Wilson pass incomplete deep left to 87-B.Obomanu.         -0.453 
#> # ℹ 6,936 more rows
…
Now let’s load play-by-play data from 2019:

games_2019 <- nflfastR::load_pbp(2019)

Here is what the player IDs look like because nflfastR
now automatically decodes IDs to look like the old format with GSIS
IDs:

games_2019 |>
  dplyr::filter(rush == 1 | pass == 1, posteam == "SEA") |>
  dplyr::select(name, id)
#> ── nflverse play by play data ──────────────────────────────────────────────────
#> ℹ Data updated: 2025-07-31 18:16:40 UTC
#> # A tibble: 1,207 × 2
#>    name     id        
#>    <chr>    <chr>     
#>  1 C.Carson 00-0033594
#>  2 R.Wilson 00-0029263
#>  3 R.Wilson 00-0029263
#>  4 C.Carson 00-0033594
#>  5 R.Wilson 00-0029263
#>  6 C.Carson 00-0033594
#>  7 R.Wilson 00-0029263
#>  8 C.Carson 00-0033594
#>  9 R.Wilson 00-0029263
#> 10 R.Wilson 00-0029263
#> # ℹ 1,197 more rows
…
