…
So far, everything has stayed in the database. If you want to bring a
query into memory, just use
[`collect()`](https://dplyr.tidyverse.org/reference/compute.html) at the
end:

``` r
russ <- pbp_db |>
  dplyr::filter(name == "R.Wilson" & posteam == "SEA") |>
  dplyr::select(desc, epa) |>
  dplyr::collect()
russ
#> # A tibble: 502 × 2
#>    desc                                                                      epa
#>    <chr>                                                                   <dbl>
#>  1 (4:54) 3-R.Wilson scrambles right end pushed ob at SEA 25 for 2 yards… -0.275
#>  2 (4:11) (Shotgun) 3-R.Wilson scrambles right tackle to SEA 31 for 11 y…  2.05 
#>  3 (1:37) (No Huddle, Shotgun) 3-R.Wilson pass incomplete deep right.     -0.591
#>  4 (1:31) (Shotgun) 3-R.Wilson pass deep middle to 16-T.Lockett for 23 y…  3.41 
#>  5 (14:50) 3-R.Wilson pass short right to 81-G.Everett to 50 for 11 yard…  0.751
#>  6 (13:48) (No Huddle, Shotgun) 3-R.Wilson pass short left to 89-W.Dissl…  0.663
#>  7 (12:51) 3-R.Wilson pass deep right to 89-W.Dissly to IND 13 for 22 ya…  1.89 
#>  8 (11:27) (Shotgun) 3-R.Wilson pass short middle to 81-G.Everett for 9 …  2.18 
#>  9 (7:04) 3-R.Wilson pass short right to 32-C.Carson pushed ob at SEA 41…  0.961
#> 10 (6:04) 3-R.Wilson pass short right to 16-T.Lockett to SEA 47 for 4 ya… -0.195
#> # ℹ 492 more rows
```
…
``` r
games_2019 <- nflfastR::load_pbp(2019)
```

Here is what the player IDs look like because `nflfastR` now
automatically decodes IDs to look like the old format with GSIS IDs:

``` r
games_2019 |>
  dplyr::filter(rush == 1 | pass == 1, posteam == "SEA") |>
  dplyr::select(name, id)
#> ── nflverse play by play data ──────────────────────────────────────────────────
#> ℹ Data updated: 2025-07-31 18:16:40 UTC
#> # A tibble: 1,207 × 2
#>    name     id        
#>    <chr>    <chr>     
#>  1 C.Carson 00-0033594
#>  2 R.Wilson 00-0029263
#>  3 R.Wilson 00-0029263
#>  4 C.Carson 00-0033594
#>  5 R.Wilson 00-0029263
#>  6 C.Carson 00-0033594
#>  7 R.Wilson 00-0029263
#>  8 C.Carson 00-0033594
#>  9 R.Wilson 00-0029263
#> 10 R.Wilson 00-0029263
#> # ℹ 1,197 more rows
```
…
